<?xml version="1.0" encoding="utf-8"?>
<!-- Generator: Adobe Illustrator 16.0.0, SVG Export Plug-In . SVG Version: 6.00 Build 0)  -->
<!DOCTYPE svg PUBLIC "-//W3C//DTD SVG 1.1//EN" "http://www.w3.org/Graphics/SVG/1.1/DTD/svg11.dtd">
<svg version="1.1" id="Layer_1" xmlns="http://www.w3.org/2000/svg" xmlns:xlink="http://www.w3.org/1999/xlink" x="0px" y="0px"
	 width="1080px" height="978.353px" viewBox="420 50.824 1080 978.353" enable-background="new 420 50.824 1080 978.353"
	 xml:space="preserve">
<g>
	<path fill="#0072CE" d="M1165.411,114.353V50.824h-76.235v63.529H830.824V50.824h-76.235v63.529H420v914.824h803.553L1500,752.729
		V114.353H1165.411z M754.589,190.588v63.529h76.235v-63.529h258.354v50.823h76.236v-50.823h258.351v127.059H496.235V190.588
		H754.589z M496.235,393.883h927.529v304.94h-254.117v254.118H496.235V393.883z M1369.858,775.059l-123.976,123.977V775.059
		H1369.858z"/>
	<rect x="667.765" y="724.235" fill="#0072CE" width="127.059" height="127.059"/>
	<rect x="896.471" y="724.235" fill="#0072CE" width="127.059" height="127.059"/>
	<rect x="896.471" y="495.529" fill="#0072CE" width="127.059" height="127.059"/>
	<rect x="1125.177" y="495.529" fill="#0072CE" width="127.059" height="127.059"/>
	<rect x="667.765" y="495.529" fill="#0072CE" width="127.059" height="127.059"/>
</g>
</svg>
