{
  "type": "FeatureCollection",
  "features": [
  {
      "type": "Feature",
      "properties": {},
      "geometry": {
        "coordinates": [
          [
            [
              3.490188,
              6.600389
            ],
            [
              3.517432,
              6.622532
            ],
            [
              3.554584,
              6.636063
            ],
            [
              3.600404,
              6.655129
            ],
            [
              3.615264,
              6.662509
            ],
            [
              3.632602,
              6.653899
            ],
            [
              3.65675,
              6.666199
            ],
            [
              3.723623,
              6.642213
            ],
            [
              3.776873,
              6.642828
            ],
            [
              3.80969,
              6.660049
            ],
            [
              3.877801,
              6.636063
            ],
            [
              3.906284,
              6.627452
            ],
            [
              3.929813,
              6.620072
            ],
            [
              3.939101,
              6.592393
            ],
            [
              3.958296,
              6.571479
            ],
            [
              4.006683,
              6.57585
            ],
            [
              4.035654,
              6.565957
            ],
            [
              4.069151,
              6.556963
            ],
            [
              4.101743,
              6.541673
            ],
            [
              4.122565,
              6.574951
            ],
            [
              4.156062,
              6.586643
            ],
            [
              4.197707,
              6.583945
            ],
            [
              4.213098,
              6.567756
            ],
            [
              4.225773,
              6.555164
            ],
            [
              4.222151,
              6.526382
            ],
            [
              4.174169,
              6.51379
            ],
            [
              4.156968,
              6.492202
            ],
            [
              4.160589,
              6.474211
            ],
            [
              4.214003,
              6.458918
            ],
            [
              4.223962,
              6.447223
            ],
            [
              4.223057,
              6.43193
            ],
            [
              4.215814,
              6.418435
            ],
            [
              4.187749,
              6.391445
            ],
            [
              4.076393,
              6.415736
            ],
            [
              3.97228,
              6.428331
            ],
            [
              3.88718,
              6.435529
            ],
            [
              3.795741,
              6.435529
            ],
            [
              3.76496,
              6.427432
            ],
            [
              3.715167,
              6.422034
            ],
            [
              3.544965,
              6.421134
            ],
            [
              3.440852,
              6.422934
            ],
            [
              3.445379,
              6.412138
            ],
            [
              3.402828,
              6.396843
            ],
            [
              3.404639,
              6.412138
            ],
            [
              3.402828,
              6.430131
            ],
            [
              3.380195,
              6.451721
            ],
            [
              3.384722,
              6.465215
            ],
            [
              3.444474,
              6.464316
            ],
            [
              3.455338,
              6.468814
            ],
            [
              3.461675,
              6.457119
            ],
            [
              3.494267,
              6.453521
            ],
            [
              3.507847,
              6.466115
            ],
            [
              3.526859,
              6.466115
            ],
            [
              3.543154,
              6.472412
            ],
            [
              3.563072,
              6.478709
            ],
            [
              3.576652,
              6.493101
            ],
            [
              3.575746,
              6.505694
            ],
            [
              3.592948,
              6.51289
            ],
            [
              3.630971,
              6.510192
            ],
            [
              3.651794,
              6.51289
            ],
            [
              3.668995,
              6.516488
            ],
            [
              3.685291,
              6.539874
            ],
            [
              3.716978,
              6.53088
            ],
            [
              3.741422,
              6.537176
            ],
            [
              3.759528,
              6.566857
            ],
            [
              3.761339,
              6.584844
            ],
            [
              3.781256,
              6.592039
            ],
            [
              3.821996,
              6.600133
            ],
            [
              3.8736,
              6.604629
            ],
            [
              3.95689,
              6.569555
            ],
            [
              3.940594,
              6.586643
            ],
            [
              3.879032,
              6.616321
            ],
            [
              3.850966,
              6.611824
            ],
            [
              3.826523,
              6.620817
            ],
            [
              3.817469,
              6.627112
            ],
            [
              3.808416,
              6.619018
            ],
            [
              3.780351,
              6.618119
            ],
            [
              3.76496,
              6.627112
            ],
            [
              3.748664,
              6.610025
            ],
            [
              3.721504,
              6.622616
            ],
            [
              3.711546,
              6.605529
            ],
            [
              3.688007,
              6.596536
            ],
            [
              3.672617,
              6.583045
            ],
            [
              3.656321,
              6.568655
            ],
            [
              3.641835,
              6.559661
            ],
            [
              3.623729,
              6.556963
            ],
            [
              3.603812,
              6.565957
            ],
            [
              3.589326,
              6.563259
            ],
            [
              3.575746,
              6.554265
            ],
            [
              3.568504,
              6.543472
            ],
            [
              3.554018,
              6.531779
            ],
            [
              3.536817,
              6.535377
            ],
            [
              3.526859,
              6.533578
            ],
            [
              3.505131,
              6.52998
            ],
            [
              3.474349,
              6.540774
            ],
            [
              3.472539,
              6.556963
            ],
            [
              3.477065,
              6.566857
            ],
            [
              3.490645,
              6.584844
            ],
            [
              3.490188,
              6.600389
            ]
          ]
        ],
        "type": "Polygon"
      },
      "id": "28588d284e586dbbef53fb3bf2ec7c9d"
    }
  ]
}